…
This is an R Markdown document. Markdown is a simple formatting syntax
for authoring HTML, PDF, and MS Word documents. For more details on
using R Markdown see <http://rmarkdown.rstudio.com>.

When you click the **Knit** button a document will be generated that
includes both content as well as the output of any embedded R code
chunks within the document. You can embed an R code chunk like this:

``` r
house_df<-read_xlsx("D:/Download folder/riverside_house_prices.xlsx")

house_df
```

    ## # A tibble: 25 × 3
    ##    House Area_sqm Price_1000s
    ##    <dbl>    <dbl>       <dbl>
    ##  1     1      121        289.
    ##  2     2       84        216.
    ##  3     3      141        317.
    ##  4     4      130        325.
    ##  5     5       90        230.
    ##  6     6      144        342.
    ##  7     7      144        342.
    ##  8     8       93        244.
    ##  9     9       72        191.
    ## 10    10       91        232.
    ## # ℹ 15 more rows
…
